<svg id="qt_back_red_off_28px" xmlns="http://www.w3.org/2000/svg" width="15.417" height="28" viewBox="0 0 15.417 28">
  <path id="qt_back_red_on_28px" d="M54.522,15,67.114,27.588a1.414,1.414,0,1,0,2-2L57.523,14,69.114,2.413a1.414,1.414,0,0,0-2-2L54.521,13A1.427,1.427,0,0,0,54.522,15Z" transform="translate(-54.113 -0.001)" fill="#c52e51"/>
</svg>
