<svg xmlns="http://www.w3.org/2000/svg" width="19.344" height="17" viewBox="0 0 19.344 17">
  <path id="ico_heart_red_16px" d="M18.478,4.413a4.827,4.827,0,0,0-6.828,0l-.93.93-.93-.93A4.828,4.828,0,0,0,2.963,11.24l.93.93L10.721,19l6.828-6.828.93-.93a4.827,4.827,0,0,0,0-6.828Z" transform="translate(-1.049 -2.498)" fill="none" stroke="#c52e51" stroke-linecap="round" stroke-linejoin="round" stroke-width="1"/>
</svg>
