<svg xmlns="http://www.w3.org/2000/svg" width="18" height="18" viewBox="0 0 18 18">
  <g id="Ellipse_2" data-name="Ellipse 2" fill="none" stroke="#eec0ca" stroke-width="1">
    <circle cx="9" cy="9" r="9" stroke="none"/>
    <circle cx="9" cy="9" r="8.5" fill="none"/>
  </g>
</svg>
